<?xml version="1.0" encoding="UTF-8" standalone="no"?>
<!-- Created with Inkscape (http://www.inkscape.org/) -->

<svg
   xmlns:dc="http://purl.org/dc/elements/1.1/"
   xmlns:cc="http://creativecommons.org/ns#"
   xmlns:rdf="http://www.w3.org/1999/02/22-rdf-syntax-ns#"
   xmlns:svg="http://www.w3.org/2000/svg"
   xmlns="http://www.w3.org/2000/svg"
   xmlns:sodipodi="http://sodipodi.sourceforge.net/DTD/sodipodi-0.dtd"
   xmlns:inkscape="http://www.inkscape.org/namespaces/inkscape"
   width="148mm"
   height="105mm"
   viewBox="0 0 148 105"
   version="1.1"
   id="svg8"
   inkscape:version="0.92.5 (2060ec1f9f, 2020-04-08)"
   sodipodi:docname="intuitive-biomedics.svg"
   inkscape:export-filename="/home/sam/rpg/traveller-models/logos/intuitive-biomedics.png"
   inkscape:export-xdpi="300"
   inkscape:export-ydpi="300">
  <defs
     id="defs2" />
  <sodipodi:namedview
     id="base"
     pagecolor="#ffffff"
     bordercolor="#666666"
     borderopacity="1.0"
     inkscape:pageopacity="0.0"
     inkscape:pageshadow="2"
     inkscape:zoom="0.9899495"
     inkscape:cx="271.95037"
     inkscape:cy="211.594"
     inkscape:document-units="mm"
     inkscape:current-layer="layer1"
     showgrid="true"
     inkscape:window-width="1828"
     inkscape:window-height="1057"
     inkscape:window-x="1932"
     inkscape:window-y="240"
     inkscape:window-maximized="0"
     inkscape:snap-grids="true"
     showguides="true"
     inkscape:guide-bbox="true">
    <inkscape:grid
       type="xygrid"
       id="grid850" />
    <sodipodi:guide
       position="55.562499,220.92709"
       orientation="0,1"
       id="guide854"
       inkscape:locked="false" />
  </sodipodi:namedview>
  <metadata
     id="metadata5">
    <rdf:RDF>
      <cc:Work
         rdf:about="">
        <dc:format>image/svg+xml</dc:format>
        <dc:type
           rdf:resource="http://purl.org/dc/dcmitype/StillImage" />
        <dc:title></dc:title>
      </cc:Work>
    </rdf:RDF>
  </metadata>
  <g
     inkscape:label="Layer 1"
     inkscape:groupmode="layer"
     id="layer1"
     transform="translate(0,-192)">
    <g
       id="g862"
       transform="matrix(2.6137456,0,0,2.6137456,-37.539453,-1.713765)">
      <text
         id="text817"
         y="94.429489"
         x="29.049498"
         style="font-style:normal;font-variant:normal;font-weight:normal;font-stretch:normal;font-size:4.81788588px;line-height:1.25;font-family:Dyuthi;-inkscape-font-specification:'Dyuthi, Normal';font-variant-ligatures:normal;font-variant-caps:normal;font-variant-numeric:normal;font-feature-settings:normal;text-align:start;letter-spacing:0px;word-spacing:0px;writing-mode:lr-tb;text-anchor:start;fill:#d45500;fill-opacity:1;stroke:none;stroke-width:0.60222483"
         xml:space="preserve"><tspan
           style="font-style:normal;font-variant:normal;font-weight:normal;font-stretch:normal;font-size:4.81788588px;font-family:Dyuthi;-inkscape-font-specification:'Dyuthi, Normal';font-variant-ligatures:normal;font-variant-caps:normal;font-variant-numeric:normal;font-feature-settings:normal;text-align:start;writing-mode:lr-tb;text-anchor:start;fill:#d45500;stroke-width:0.60222483"
           y="94.429489"
           x="29.049498"
           id="tspan815"
           sodipodi:role="line">Intuitive</tspan></text>
      <text
         id="text821"
         y="99.509331"
         x="29.111734"
         style="font-style:normal;font-weight:normal;font-size:7.77344036px;line-height:1.25;font-family:sans-serif;letter-spacing:0px;word-spacing:0px;fill:#ff0000;fill-opacity:1;stroke:none;stroke-width:0.97168005"
         xml:space="preserve"><tspan
           style="font-style:normal;font-variant:normal;font-weight:normal;font-stretch:normal;font-size:7.77345848px;font-family:Uroob;-inkscape-font-specification:'Uroob, Normal';font-variant-ligatures:normal;font-variant-caps:normal;font-variant-numeric:normal;font-feature-settings:normal;text-align:start;writing-mode:lr-tb;text-anchor:start;fill:#ff0000;stroke-width:0.97168005"
           y="99.509331"
           x="29.111734"
           id="tspan819"
           sodipodi:role="line">BioMedics</tspan></text>
      <path
         d="m 35.237042,89.916024 c 3.663947,-4.31627 10.321539,-4.412499 14.485591,-0.772764 4.893639,4.277456 4.968613,11.92044 0.724502,16.6701 -4.889607,5.47205 -13.520151,5.52556 -18.854612,0.67624 -6.051181,-5.50085 -6.083089,-15.12044 -0.627979,-21.039121 6.111476,-6.630824 16.721154,-6.641045 23.223633,-0.579718 6.231183,5.808436 7.215197,15.507019 2.686525,22.635129"
         sodipodi:t0="0.50999999"
         sodipodi:argument="-18.230564"
         sodipodi:radius="18.54071"
         sodipodi:revolution="3"
         sodipodi:expansion="1"
         sodipodi:cy="96.748306"
         sodipodi:cx="41.773964"
         id="path842"
         style="fill:none;fill-rule:evenodd;stroke:#2a2aff;stroke-width:1.46500003;stroke-linecap:round;stroke-miterlimit:4;stroke-dasharray:none"
         sodipodi:type="spiral" />
      <path
         sodipodi:nodetypes="ccccccccccc"
         inkscape:connector-curvature="0"
         id="path852"
         d="m 33.505872,104.38334 h 1.603535 l 1.603535,-4.00884 1.603535,5.61238 1.603535,-4.00885 0.801767,2.40531 h 2.405304 c -2.405303,-3.20707 0.801767,-4.00884 1.603534,-2.24495 0.801768,-1.76389 4.008838,-0.96212 1.603535,2.24495 -0.641414,0.80177 -0.801767,0.80177 -1.603535,1.28283 -0.962121,-0.64142 -1.122474,-0.64142 -1.603534,-1.28283"
         style="fill:none;stroke:#aa0000;stroke-width:0.60606045;stroke-linecap:round;stroke-linejoin:round;stroke-miterlimit:4;stroke-dasharray:none;stroke-opacity:1" />
    </g>
  </g>
</svg>
